%YAML 1.1
%TAG !u! tag:unity3d.com,2011:
--- !u!114 &11400000
MonoBehaviour:
  m_ObjectHideFlags: 0
  m_PrefabParentObject: {fileID: 0}
  m_PrefabInternal: {fileID: 0}
  m_GameObject: {fileID: 0}
  m_Enabled: 1
  m_EditorHideFlags: 0
  m_Script: {fileID: 11500000, guid: 192e586016ab7ce46a1be052d481feb6, type: 3}
  m_Name: Fisherman
  m_EditorClassIdentifier: 
  actorName: Fisherman
  expreccions:
  - {fileID: 21300000, guid: 40583ec40f75f544fa613255b5935e12, type: 3}
  - {fileID: 21300000, guid: 40583ec40f75f544fa613255b5935e12, type: 3}
  - {fileID: 21300000, guid: 40583ec40f75f544fa613255b5935e12, type: 3}
  - {fileID: 21300000, guid: 40583ec40f75f544fa613255b5935e12, type: 3}
  - {fileID: 21300000, guid: 40583ec40f75f544fa613255b5935e12, type: 3}
  - {fileID: 21300000, guid: 40583ec40f75f544fa613255b5935e12, type: 3}
