%YAML 1.1
%TAG !u! tag:unity3d.com,2011:
--- !u!114 &11400000
MonoBehaviour:
  m_ObjectHideFlags: 0
  m_PrefabParentObject: {fileID: 0}
  m_PrefabInternal: {fileID: 0}
  m_GameObject: {fileID: 0}
  m_Enabled: 1
  m_EditorHideFlags: 0
  m_Script: {fileID: 11500000, guid: 192e586016ab7ce46a1be052d481feb6, type: 3}
  m_Name: Reinkram
  m_EditorClassIdentifier: 
  actorName: Reinkram
  expreccions:
  - {fileID: 21300000, guid: 82de6fa073d42b94781c4a9dc6727c9c, type: 3}
  - {fileID: 21300000, guid: 82de6fa073d42b94781c4a9dc6727c9c, type: 3}
  - {fileID: 21300000, guid: 82de6fa073d42b94781c4a9dc6727c9c, type: 3}
  - {fileID: 21300000, guid: 82de6fa073d42b94781c4a9dc6727c9c, type: 3}
  - {fileID: 21300000, guid: 82de6fa073d42b94781c4a9dc6727c9c, type: 3}
  - {fileID: 21300000, guid: 82de6fa073d42b94781c4a9dc6727c9c, type: 3}
