%YAML 1.1
%TAG !u! tag:unity3d.com,2011:
--- !u!114 &11400000
MonoBehaviour:
  m_ObjectHideFlags: 0
  m_PrefabParentObject: {fileID: 0}
  m_PrefabInternal: {fileID: 0}
  m_GameObject: {fileID: 0}
  m_Enabled: 1
  m_EditorHideFlags: 0
  m_Script: {fileID: 11500000, guid: 24281f39b3c0dbe40a78b3b10246f447, type: 3}
  m_Name: HawkRoom
  m_EditorClassIdentifier: 
  type: 2
  BaseEnemies:
  - {fileID: 11400000, guid: 7ad289fafcc94a846b7c3a2babe218bd, type: 2}
