%YAML 1.1
%TAG !u! tag:unity3d.com,2011:
--- !u!114 &11400000
MonoBehaviour:
  m_ObjectHideFlags: 0
  m_PrefabParentObject: {fileID: 0}
  m_PrefabInternal: {fileID: 0}
  m_GameObject: {fileID: 0}
  m_Enabled: 1
  m_EditorHideFlags: 0
  m_Script: {fileID: 11500000, guid: 2bdf660b4f6ed2747ac80235b61da32f, type: 3}
  m_Name: PlayOrNot(Incorrect)
  m_EditorClassIdentifier: 
  scenario: {fileID: 21300000, guid: 877ec58d152c45d47b2442236e19a9ec, type: 3}
  type: 0
  sentences:
  - actor: {fileID: 11400000, guid: 5d7aae7ac90e42e49916a363e9802a25, type: 2}
    text: buuuhh .. mistake, you're not smart enough to know what we know, see you
      Shad!
    expression: 0
  - actor: {fileID: 11400000, guid: 902ea45ab39660441b4a39aafb0b0594, type: 2}
    text: 'good, goodbye ... Damn, I''ve been here too long, I must hurry! '
    expression: 0
  next: {fileID: 11400000, guid: 88638321217b38c439fa5204149e41b6, type: 2}
