%YAML 1.1
%TAG !u! tag:unity3d.com,2011:
--- !u!114 &11400000
MonoBehaviour:
  m_ObjectHideFlags: 0
  m_PrefabParentObject: {fileID: 0}
  m_PrefabInternal: {fileID: 0}
  m_GameObject: {fileID: 0}
  m_Enabled: 1
  m_EditorHideFlags: 0
  m_Script: {fileID: 11500000, guid: 2bdf660b4f6ed2747ac80235b61da32f, type: 3}
  m_Name: Shaman(route incomplete)
  m_EditorClassIdentifier: 
  scenario: {fileID: 21300000, guid: 8a1920ab558e4384581b2d8c230205b9, type: 3}
  type: 0
  sentences:
  - actor: {fileID: 11400000, guid: b0c8f197887011d4ba055ec4771c9adf, type: 2}
    text: Who are you to talk like that, get out of here! (Annoying)
    expression: 3
  next: {fileID: 11400000, guid: a664aec7fdc3a754da7aa7d4b165cb3f, type: 2}
