%YAML 1.1
%TAG !u! tag:unity3d.com,2011:
--- !u!114 &11400000
MonoBehaviour:
  m_ObjectHideFlags: 0
  m_PrefabParentObject: {fileID: 0}
  m_PrefabInternal: {fileID: 0}
  m_GameObject: {fileID: 0}
  m_Enabled: 1
  m_EditorHideFlags: 0
  m_Script: {fileID: 11500000, guid: 2bdf660b4f6ed2747ac80235b61da32f, type: 3}
  m_Name: Shaman(D3)
  m_EditorClassIdentifier: 
  scenario: {fileID: 21300000, guid: 8a1920ab558e4384581b2d8c230205b9, type: 3}
  type: 0
  sentences:
  - actor: {fileID: 11400000, guid: b0c8f197887011d4ba055ec4771c9adf, type: 2}
    text: 'A long time ago there was a great nation in conflict, some wanted to trust
      in the power of the machines, while others did not want to lose contact with
      the Earth itself, great conflicts were generated, guerrillas for power and disputes
      over the territory ... One day a badly injured man came to our land, spoke of
      conflict in the world of machines, asked for help and refuge, we thought it
      was a trap ... only one of our people agreed to help him ... '
    expression: 0
  - actor: {fileID: 11400000, guid: 902ea45ab39660441b4a39aafb0b0594, type: 2}
    text: 'I see, what happened next? '
    expression: 0
  - actor: {fileID: 11400000, guid: b0c8f197887011d4ba055ec4771c9adf, type: 2}
    text: 'There was a big fire, we thought it was the end for us, suddenly, a great
      metal beast appeared, diverted the riverbed and saved our town, no one understood
      what was happening, then from inside the beast appeared The foreigner thanked
      our people for the care they offered him when he was wounded. Some were grateful
      to save them, others were afraid of that beast. '
    expression: 0
  - actor: {fileID: 11400000, guid: b0c8f197887011d4ba055ec4771c9adf, type: 2}
    text: 'The foreigner observed our people and said: "I know they are afraid, but
      I do not come here as a destroyer, let me help them as a token of gratitude
      for saving my life ..." We feel guilty, who would say that he would be our savior
      ... we rebuilt our town, he taught us about the world of machines and we taught
      ours, the metal beast was destroyed as a sign of peace by our people and by
      the machines, finally, the boy decided to stay in our town and marry who saved
      his life ... your mother '
    expression: 0
  - actor: {fileID: 11400000, guid: 902ea45ab39660441b4a39aafb0b0594, type: 2}
    text: 'That story I had already heard, but what does it have to do with my visions? '
    expression: 0
  - actor: {fileID: 11400000, guid: b0c8f197887011d4ba055ec4771c9adf, type: 2}
    text: 'Your mother was a great Shaman, could easily connect with the spirits,
      your father said that to handle the iron beast you had to have a great connection
      with the machine, you inherited the best of both, that''s why those dreams affect
      you so much, and that is why you are able to master spiritual power so easily. '
    expression: 0
  - actor: {fileID: 11400000, guid: 902ea45ab39660441b4a39aafb0b0594, type: 2}
    text: 'Now I understand, thanks for telling me ... '
    expression: 0
  next: {fileID: 11400000, guid: d8738e294fea80248b0b5977e9b016fb, type: 2}
