%YAML 1.1
%TAG !u! tag:unity3d.com,2011:
--- !u!114 &11400000
MonoBehaviour:
  m_ObjectHideFlags: 0
  m_PrefabParentObject: {fileID: 0}
  m_PrefabInternal: {fileID: 0}
  m_GameObject: {fileID: 0}
  m_Enabled: 1
  m_EditorHideFlags: 0
  m_Script: {fileID: 11500000, guid: 2bdf660b4f6ed2747ac80235b61da32f, type: 3}
  m_Name: Shaman(D4)
  m_EditorClassIdentifier: 
  scenario: {fileID: 21300000, guid: 8a1920ab558e4384581b2d8c230205b9, type: 3}
  type: 0
  sentences:
  - actor: {fileID: 11400000, guid: 902ea45ab39660441b4a39aafb0b0594, type: 2}
    text: 'Shaman, today I saw the children of the town, they told me that they saw
      you sorry, would you tell me what it is? '
    expression: 0
  - actor: {fileID: 11400000, guid: b0c8f197887011d4ba055ec4771c9adf, type: 2}
    text: What did they say?
    expression: 0
  - actor: {fileID: 11400000, guid: 902ea45ab39660441b4a39aafb0b0594, type: 2}
    text: 'I was told that they saw you looking at the portrait of a young man and
      that you were angry to see that they were spying on you '
    expression: 0
  next: {fileID: 11400000, guid: d8738e294fea80248b0b5977e9b016fb, type: 2}
