%YAML 1.1
%TAG !u! tag:unity3d.com,2011:
--- !u!114 &11400000
MonoBehaviour:
  m_ObjectHideFlags: 0
  m_PrefabParentObject: {fileID: 0}
  m_PrefabInternal: {fileID: 0}
  m_GameObject: {fileID: 0}
  m_Enabled: 1
  m_EditorHideFlags: 0
  m_Script: {fileID: 11500000, guid: 731c902a76e029141a44734b8239af35, type: 3}
  m_Name: MountainDungeon
  m_EditorClassIdentifier: 
  BasicRooms:
  - {fileID: 11400000, guid: 7f3511b3fe5baa045b0a4ee1e8840dfa, type: 2}
  - {fileID: 11400000, guid: 703d604df862ca4439a3cb3bc0845499, type: 2}
  - {fileID: 11400000, guid: fb279d4780b33494b962091ba3734f09, type: 2}
  EliteRooms:
  - {fileID: 11400000, guid: d23c1c22107692547a99dcb3d5569585, type: 2}
  - {fileID: 11400000, guid: 45f120d74cda5bb40aadc5f810f8b0c3, type: 2}
  BossRooms:
  - {fileID: 11400000, guid: 13c44d080212f754fbfceb809ab70dcb, type: 2}
  cleared: 0
  depth: 11
  lvl: 0
  scene: RTS_Dialog
  dialog: 2
  roomBackgrounds:
  - {fileID: 21300000, guid: 306091be33dcd374ea59dc29ec6ab116, type: 3}
  hallwayBackgrounds:
  - {fileID: 21300000, guid: e8e799e34eabca3468f8c49cb893f0e1, type: 3}
  hallwayText:
  - The cave whisper, I'll face...
  - The spirits tells that in the next room I'll encounter...
  - For this path I sense...
  basicEnemieChances: 80
  eliteEnemieChances: 20
  neutralEnemieChances: 20
  nextRoomOptions:
  - {fileID: 11400000, guid: 13c44d080212f754fbfceb809ab70dcb, type: 2}
  - {fileID: 11400000, guid: 13c44d080212f754fbfceb809ab70dcb, type: 2}
  - {fileID: 11400000, guid: 13c44d080212f754fbfceb809ab70dcb, type: 2}
  - {fileID: 11400000, guid: 13c44d080212f754fbfceb809ab70dcb, type: 2}
  selectedRoom: {fileID: 11400000, guid: 13c44d080212f754fbfceb809ab70dcb, type: 2}
