%YAML 1.1
%TAG !u! tag:unity3d.com,2011:
--- !u!114 &11400000
MonoBehaviour:
  m_ObjectHideFlags: 0
  m_PrefabParentObject: {fileID: 0}
  m_PrefabInternal: {fileID: 0}
  m_GameObject: {fileID: 0}
  m_Enabled: 1
  m_EditorHideFlags: 0
  m_Script: {fileID: 11500000, guid: 576c637eb2371cb4aa71b1fc92d29ba2, type: 3}
  m_Name: EndDialog
  m_EditorClassIdentifier: 
  scenario: {fileID: 21300000, guid: 56dad563f2dfc3f40a1445cc4e247c37, type: 3}
  path: RTS_CityMap
  act: 1
