%YAML 1.1
%TAG !u! tag:unity3d.com,2011:
--- !u!114 &11400000
MonoBehaviour:
  m_ObjectHideFlags: 0
  m_PrefabParentObject: {fileID: 0}
  m_PrefabInternal: {fileID: 0}
  m_GameObject: {fileID: 0}
  m_Enabled: 1
  m_EditorHideFlags: 0
  m_Script: {fileID: 11500000, guid: 01566c581019c3249aefee20d280358e, type: 3}
  m_Name: "Fisherman(Desicion\xB4s)"
  m_EditorClassIdentifier: 
  scenario: {fileID: 21300000, guid: 17a0dca61d0f7cc42a43334c3665106b, type: 3}
  type: 1
  actor: {fileID: 11400000, guid: 6ef57503d52f7f7429fa3e773248b7c5, type: 2}
  headerText: 'Fisherman: approach boy and come to listen to the secrets of our land,
    I am the best narrator that exists in this town'
  options:
  - text: A) Tell me about the origin of our land
    next: {fileID: 11400000, guid: 0e1972c9f999db442a7d43708b88d908, type: 2}
  - text: "B) How were the spirits born?\r"
    next: {fileID: 11400000, guid: ed886891edb7cce4cba08bfe7f4a5eea, type: 2}
  - text: "C) Tell me about the first Shaman\r\n"
    next: {fileID: 11400000, guid: 060f3c42840776642a037d30b43f7f7b, type: 2}
  - text: d) Bye
    next: {fileID: 11400000, guid: 4cd9a3fa6fcaab146928f84ffec1479b, type: 2}
