%YAML 1.1
%TAG !u! tag:unity3d.com,2011:
--- !u!114 &11400000
MonoBehaviour:
  m_ObjectHideFlags: 0
  m_PrefabParentObject: {fileID: 0}
  m_PrefabInternal: {fileID: 0}
  m_GameObject: {fileID: 0}
  m_Enabled: 1
  m_EditorHideFlags: 0
  m_Script: {fileID: 11500000, guid: 2bdf660b4f6ed2747ac80235b61da32f, type: 3}
  m_Name: Fisherman(D1)
  m_EditorClassIdentifier: 
  scenario: {fileID: 21300000, guid: 5c9878de5428b7e459afb1883b7ce0c2, type: 3}
  type: 0
  sentences:
  - actor: {fileID: 11400000, guid: 6ef57503d52f7f7429fa3e773248b7c5, type: 2}
    text: At first it was only the darkness and the moon, the moon felt alone in the
      darkness, so much was her sorrow that she wept and cried until filling the world
      with water, she began to observe and realized that she was not alone anymore.
      from the water there were a lot of animals, happy began to radiate a great light,
      so strong was this that the world dried up and most of the animals perished,
      seeing this, it was sad again and cried, but not as much as before, because
      one of the species had survived the great change, but had lost its ability to
      breathe underwater, he called these "humans", the moon observed and saw that
      humans began to perish because the world was now too cold.
    expression: 0
  - actor: {fileID: 11400000, guid: 6ef57503d52f7f7429fa3e773248b7c5, type: 2}
    text: She decided to visit them twice a day and see how they were, one happy and
      the other sad, for humans to understand, decided to present himself as a moon
      when he was sad and sunny when he was cheerful. A while passed and the humans
      stopped understanding the Moon but she still visits us every day as she had
      promised
    expression: 0
  next: {fileID: 11400000, guid: 38128542db81b1d429d2b44f8cbd41ae, type: 2}
