%YAML 1.1
%TAG !u! tag:unity3d.com,2011:
--- !u!114 &11400000
MonoBehaviour:
  m_ObjectHideFlags: 0
  m_PrefabParentObject: {fileID: 0}
  m_PrefabInternal: {fileID: 0}
  m_GameObject: {fileID: 0}
  m_Enabled: 1
  m_EditorHideFlags: 0
  m_Script: {fileID: 11500000, guid: df901300c769a1e4a81c046ececde3a0, type: 3}
  m_Name: Act 2.5
  m_EditorClassIdentifier: 
  dialogs:
  - {fileID: 11400000, guid: 5469b951fdf42ac438620c1ec20c1293, type: 2}
  - {fileID: 11400000, guid: 47dbc1fe657232c4a964779a852acdfc, type: 2}
  - {fileID: 11400000, guid: 18c28cb6c1a197b49bf9665490288f4a, type: 2}
  - {fileID: 11400000, guid: 190c052e84566cc4394e2fd1eb7f3841, type: 2}
